^C:\USERS\CASGRANT\DOCUMENTS\NINJAS_VS_PIRATES\OBJECT ORIENTED PROGRAMMING C++ 2\CHARACTER.CPP
/c /ZI /JMC /nologo /W3 /WX- /diagnostics:column /sdl /Od /D _MBCS /Gm- /EHsc /RTC1 /MDd /GS /fp:precise /permissive- /Zc:wchar_t /Zc:forScope /Zc:inline /Fo"X64\DEBUG\\" /Fd"X64\DEBUG\VC142.PDB" /Gd /TP /FC C:\USERS\CASGRANT\DOCUMENTS\NINJAS_VS_PIRATES\OBJECT ORIENTED PROGRAMMING C++ 2\CHARACTER.CPP
^C:\USERS\CASGRANT\DOCUMENTS\NINJAS_VS_PIRATES\OBJECT ORIENTED PROGRAMMING C++ 2\GAMEDRIVER.CPP
/c /ZI /JMC /nologo /W3 /WX- /diagnostics:column /sdl /Od /D _MBCS /Gm- /EHsc /RTC1 /MDd /GS /fp:precise /permissive- /Zc:wchar_t /Zc:forScope /Zc:inline /Fo"X64\DEBUG\\" /Fd"X64\DEBUG\VC142.PDB" /Gd /TP /FC C:\USERS\CASGRANT\DOCUMENTS\NINJAS_VS_PIRATES\OBJECT ORIENTED PROGRAMMING C++ 2\GAMEDRIVER.CPP
^C:\USERS\CASGRANT\DOCUMENTS\NINJAS_VS_PIRATES\OBJECT ORIENTED PROGRAMMING C++ 2\GAMESTRUCTURE.CPP
/c /ZI /JMC /nologo /W3 /WX- /diagnostics:column /sdl /Od /D _MBCS /Gm- /EHsc /RTC1 /MDd /GS /fp:precise /permissive- /Zc:wchar_t /Zc:forScope /Zc:inline /Fo"X64\DEBUG\\" /Fd"X64\DEBUG\VC142.PDB" /Gd /TP /FC C:\USERS\CASGRANT\DOCUMENTS\NINJAS_VS_PIRATES\OBJECT ORIENTED PROGRAMMING C++ 2\GAMESTRUCTURE.CPP
^C:\USERS\CASGRANT\DOCUMENTS\NINJAS_VS_PIRATES\OBJECT ORIENTED PROGRAMMING C++ 2\NINJA.CPP
/c /ZI /JMC /nologo /W3 /WX- /diagnostics:column /sdl /Od /D _MBCS /Gm- /EHsc /RTC1 /MDd /GS /fp:precise /permissive- /Zc:wchar_t /Zc:forScope /Zc:inline /Fo"X64\DEBUG\\" /Fd"X64\DEBUG\VC142.PDB" /Gd /TP /FC C:\USERS\CASGRANT\DOCUMENTS\NINJAS_VS_PIRATES\OBJECT ORIENTED PROGRAMMING C++ 2\NINJA.CPP
^C:\USERS\CASGRANT\DOCUMENTS\NINJAS_VS_PIRATES\OBJECT ORIENTED PROGRAMMING C++ 2\PIRATE.CPP
/c /ZI /JMC /nologo /W3 /WX- /diagnostics:column /sdl /Od /D _MBCS /Gm- /EHsc /RTC1 /MDd /GS /fp:precise /permissive- /Zc:wchar_t /Zc:forScope /Zc:inline /Fo"X64\DEBUG\\" /Fd"X64\DEBUG\VC142.PDB" /Gd /TP /FC C:\USERS\CASGRANT\DOCUMENTS\NINJAS_VS_PIRATES\OBJECT ORIENTED PROGRAMMING C++ 2\PIRATE.CPP
^C:\USERS\CASGRANT\DOCUMENTS\NINJAS_VS_PIRATES\OBJECT ORIENTED PROGRAMMING C++ 2\SOURCE.CPP
/c /ZI /JMC /nologo /W3 /WX- /diagnostics:column /sdl /Od /D _MBCS /Gm- /EHsc /RTC1 /MDd /GS /fp:precise /permissive- /Zc:wchar_t /Zc:forScope /Zc:inline /Fo"X64\DEBUG\\" /Fd"X64\DEBUG\VC142.PDB" /Gd /TP /FC C:\USERS\CASGRANT\DOCUMENTS\NINJAS_VS_PIRATES\OBJECT ORIENTED PROGRAMMING C++ 2\SOURCE.CPP
