^C:\USERS\CASGRANT\DOCUMENTS\NINJAS_VS_PIRATES\OBJECT ORIENTED PROGRAMMING C++ 2\NINJA.CPP|C:\USERS\CASGRANT\DOCUMENTS\NINJAS_VS_PIRATES\OBJECT ORIENTED PROGRAMMING C++ 2\SOURCE.CPP
C:\USERS\CASGRANT\DOCUMENTS\NINJAS_VS_PIRATES\OBJECT ORIENTED PROGRAMMING C++ 2\X64\DEBUG\VC142.PDB
C:\USERS\CASGRANT\DOCUMENTS\NINJAS_VS_PIRATES\OBJECT ORIENTED PROGRAMMING C++ 2\X64\DEBUG\VC142.IDB
C:\USERS\CASGRANT\DOCUMENTS\NINJAS_VS_PIRATES\OBJECT ORIENTED PROGRAMMING C++ 2\X64\DEBUG\SOURCE.OBJ
C:\USERS\CASGRANT\DOCUMENTS\NINJAS_VS_PIRATES\OBJECT ORIENTED PROGRAMMING C++ 2\X64\DEBUG\NINJA.OBJ
^C:\USERS\CASGRANT\DOCUMENTS\NINJAS_VS_PIRATES\OBJECT ORIENTED PROGRAMMING C++ 2\CHARACTER.CPP|C:\USERS\CASGRANT\DOCUMENTS\NINJAS_VS_PIRATES\OBJECT ORIENTED PROGRAMMING C++ 2\PIRATE.CPP
C:\USERS\CASGRANT\DOCUMENTS\NINJAS_VS_PIRATES\OBJECT ORIENTED PROGRAMMING C++ 2\X64\DEBUG\VC142.PDB
C:\USERS\CASGRANT\DOCUMENTS\NINJAS_VS_PIRATES\OBJECT ORIENTED PROGRAMMING C++ 2\X64\DEBUG\VC142.IDB
C:\USERS\CASGRANT\DOCUMENTS\NINJAS_VS_PIRATES\OBJECT ORIENTED PROGRAMMING C++ 2\X64\DEBUG\PIRATE.OBJ
^C:\USERS\CASGRANT\DOCUMENTS\NINJAS_VS_PIRATES\OBJECT ORIENTED PROGRAMMING C++ 2\CHARACTER.CPP|C:\USERS\CASGRANT\DOCUMENTS\NINJAS_VS_PIRATES\OBJECT ORIENTED PROGRAMMING C++ 2\GAMEDRIVER.CPP|C:\USERS\CASGRANT\DOCUMENTS\NINJAS_VS_PIRATES\OBJECT ORIENTED PROGRAMMING C++ 2\SOURCE.CPP
C:\USERS\CASGRANT\DOCUMENTS\NINJAS_VS_PIRATES\OBJECT ORIENTED PROGRAMMING C++ 2\X64\DEBUG\VC142.PDB
C:\USERS\CASGRANT\DOCUMENTS\NINJAS_VS_PIRATES\OBJECT ORIENTED PROGRAMMING C++ 2\X64\DEBUG\VC142.IDB
C:\USERS\CASGRANT\DOCUMENTS\NINJAS_VS_PIRATES\OBJECT ORIENTED PROGRAMMING C++ 2\X64\DEBUG\SOURCE.OBJ
C:\USERS\CASGRANT\DOCUMENTS\NINJAS_VS_PIRATES\OBJECT ORIENTED PROGRAMMING C++ 2\X64\DEBUG\GAMEDRIVER.OBJ
C:\USERS\CASGRANT\DOCUMENTS\NINJAS_VS_PIRATES\OBJECT ORIENTED PROGRAMMING C++ 2\X64\DEBUG\CHARACTER.OBJ
^C:\USERS\CASGRANT\DOCUMENTS\NINJAS_VS_PIRATES\OBJECT ORIENTED PROGRAMMING C++ 2\NINJA.CPP|C:\USERS\CASGRANT\DOCUMENTS\NINJAS_VS_PIRATES\OBJECT ORIENTED PROGRAMMING C++ 2\PIRATE.CPP|C:\USERS\CASGRANT\DOCUMENTS\NINJAS_VS_PIRATES\OBJECT ORIENTED PROGRAMMING C++ 2\SOURCE.CPP
C:\USERS\CASGRANT\DOCUMENTS\NINJAS_VS_PIRATES\OBJECT ORIENTED PROGRAMMING C++ 2\X64\DEBUG\VC142.PDB
C:\USERS\CASGRANT\DOCUMENTS\NINJAS_VS_PIRATES\OBJECT ORIENTED PROGRAMMING C++ 2\X64\DEBUG\VC142.IDB
C:\USERS\CASGRANT\DOCUMENTS\NINJAS_VS_PIRATES\OBJECT ORIENTED PROGRAMMING C++ 2\X64\DEBUG\SOURCE.OBJ
C:\USERS\CASGRANT\DOCUMENTS\NINJAS_VS_PIRATES\OBJECT ORIENTED PROGRAMMING C++ 2\X64\DEBUG\PIRATE.OBJ
C:\USERS\CASGRANT\DOCUMENTS\NINJAS_VS_PIRATES\OBJECT ORIENTED PROGRAMMING C++ 2\X64\DEBUG\NINJA.OBJ
^C:\USERS\CASGRANT\DOCUMENTS\NINJAS_VS_PIRATES\OBJECT ORIENTED PROGRAMMING C++ 2\CHARACTER.CPP|C:\USERS\CASGRANT\DOCUMENTS\NINJAS_VS_PIRATES\OBJECT ORIENTED PROGRAMMING C++ 2\NINJA.CPP|C:\USERS\CASGRANT\DOCUMENTS\NINJAS_VS_PIRATES\OBJECT ORIENTED PROGRAMMING C++ 2\PIRATE.CPP|C:\USERS\CASGRANT\DOCUMENTS\NINJAS_VS_PIRATES\OBJECT ORIENTED PROGRAMMING C++ 2\SOURCE.CPP
C:\USERS\CASGRANT\DOCUMENTS\NINJAS_VS_PIRATES\OBJECT ORIENTED PROGRAMMING C++ 2\X64\DEBUG\VC142.PDB
C:\USERS\CASGRANT\DOCUMENTS\NINJAS_VS_PIRATES\OBJECT ORIENTED PROGRAMMING C++ 2\X64\DEBUG\VC142.IDB
C:\USERS\CASGRANT\DOCUMENTS\NINJAS_VS_PIRATES\OBJECT ORIENTED PROGRAMMING C++ 2\X64\DEBUG\SOURCE.OBJ
C:\USERS\CASGRANT\DOCUMENTS\NINJAS_VS_PIRATES\OBJECT ORIENTED PROGRAMMING C++ 2\X64\DEBUG\PIRATE.OBJ
C:\USERS\CASGRANT\DOCUMENTS\NINJAS_VS_PIRATES\OBJECT ORIENTED PROGRAMMING C++ 2\X64\DEBUG\NINJA.OBJ
C:\USERS\CASGRANT\DOCUMENTS\NINJAS_VS_PIRATES\OBJECT ORIENTED PROGRAMMING C++ 2\X64\DEBUG\CHARACTER.OBJ
^C:\USERS\CASGRANT\DOCUMENTS\NINJAS_VS_PIRATES\OBJECT ORIENTED PROGRAMMING C++ 2\GAMEDRIVER.CPP|C:\USERS\CASGRANT\DOCUMENTS\NINJAS_VS_PIRATES\OBJECT ORIENTED PROGRAMMING C++ 2\NINJA.CPP|C:\USERS\CASGRANT\DOCUMENTS\NINJAS_VS_PIRATES\OBJECT ORIENTED PROGRAMMING C++ 2\PIRATE.CPP|C:\USERS\CASGRANT\DOCUMENTS\NINJAS_VS_PIRATES\OBJECT ORIENTED PROGRAMMING C++ 2\SOURCE.CPP
C:\USERS\CASGRANT\DOCUMENTS\NINJAS_VS_PIRATES\OBJECT ORIENTED PROGRAMMING C++ 2\X64\DEBUG\VC142.PDB
C:\USERS\CASGRANT\DOCUMENTS\NINJAS_VS_PIRATES\OBJECT ORIENTED PROGRAMMING C++ 2\X64\DEBUG\VC142.IDB
C:\USERS\CASGRANT\DOCUMENTS\NINJAS_VS_PIRATES\OBJECT ORIENTED PROGRAMMING C++ 2\X64\DEBUG\SOURCE.OBJ
C:\USERS\CASGRANT\DOCUMENTS\NINJAS_VS_PIRATES\OBJECT ORIENTED PROGRAMMING C++ 2\X64\DEBUG\PIRATE.OBJ
C:\USERS\CASGRANT\DOCUMENTS\NINJAS_VS_PIRATES\OBJECT ORIENTED PROGRAMMING C++ 2\X64\DEBUG\NINJA.OBJ
C:\USERS\CASGRANT\DOCUMENTS\NINJAS_VS_PIRATES\OBJECT ORIENTED PROGRAMMING C++ 2\X64\DEBUG\GAMEDRIVER.OBJ
^C:\USERS\CASGRANT\DOCUMENTS\NINJAS_VS_PIRATES\OBJECT ORIENTED PROGRAMMING C++ 2\CHARACTER.CPP|C:\USERS\CASGRANT\DOCUMENTS\NINJAS_VS_PIRATES\OBJECT ORIENTED PROGRAMMING C++ 2\GAMEDRIVER.CPP|C:\USERS\CASGRANT\DOCUMENTS\NINJAS_VS_PIRATES\OBJECT ORIENTED PROGRAMMING C++ 2\NINJA.CPP|C:\USERS\CASGRANT\DOCUMENTS\NINJAS_VS_PIRATES\OBJECT ORIENTED PROGRAMMING C++ 2\PIRATE.CPP|C:\USERS\CASGRANT\DOCUMENTS\NINJAS_VS_PIRATES\OBJECT ORIENTED PROGRAMMING C++ 2\SOURCE.CPP
C:\USERS\CASGRANT\DOCUMENTS\NINJAS_VS_PIRATES\OBJECT ORIENTED PROGRAMMING C++ 2\X64\DEBUG\VC142.PDB
C:\USERS\CASGRANT\DOCUMENTS\NINJAS_VS_PIRATES\OBJECT ORIENTED PROGRAMMING C++ 2\X64\DEBUG\VC142.IDB
C:\USERS\CASGRANT\DOCUMENTS\NINJAS_VS_PIRATES\OBJECT ORIENTED PROGRAMMING C++ 2\X64\DEBUG\SOURCE.OBJ
C:\USERS\CASGRANT\DOCUMENTS\NINJAS_VS_PIRATES\OBJECT ORIENTED PROGRAMMING C++ 2\X64\DEBUG\PIRATE.OBJ
C:\USERS\CASGRANT\DOCUMENTS\NINJAS_VS_PIRATES\OBJECT ORIENTED PROGRAMMING C++ 2\X64\DEBUG\NINJA.OBJ
C:\USERS\CASGRANT\DOCUMENTS\NINJAS_VS_PIRATES\OBJECT ORIENTED PROGRAMMING C++ 2\X64\DEBUG\GAMEDRIVER.OBJ
C:\USERS\CASGRANT\DOCUMENTS\NINJAS_VS_PIRATES\OBJECT ORIENTED PROGRAMMING C++ 2\X64\DEBUG\CHARACTER.OBJ
^C:\USERS\CASGRANT\DOCUMENTS\NINJAS_VS_PIRATES\OBJECT ORIENTED PROGRAMMING C++ 2\NINJA.CPP|C:\USERS\CASGRANT\DOCUMENTS\NINJAS_VS_PIRATES\OBJECT ORIENTED PROGRAMMING C++ 2\PIRATE.CPP
C:\USERS\CASGRANT\DOCUMENTS\NINJAS_VS_PIRATES\OBJECT ORIENTED PROGRAMMING C++ 2\X64\DEBUG\VC142.PDB
C:\USERS\CASGRANT\DOCUMENTS\NINJAS_VS_PIRATES\OBJECT ORIENTED PROGRAMMING C++ 2\X64\DEBUG\VC142.IDB
C:\USERS\CASGRANT\DOCUMENTS\NINJAS_VS_PIRATES\OBJECT ORIENTED PROGRAMMING C++ 2\X64\DEBUG\PIRATE.OBJ
C:\USERS\CASGRANT\DOCUMENTS\NINJAS_VS_PIRATES\OBJECT ORIENTED PROGRAMMING C++ 2\X64\DEBUG\NINJA.OBJ
^C:\USERS\CASGRANT\DOCUMENTS\NINJAS_VS_PIRATES\OBJECT ORIENTED PROGRAMMING C++ 2\CHARACTER.CPP|C:\USERS\CASGRANT\DOCUMENTS\NINJAS_VS_PIRATES\OBJECT ORIENTED PROGRAMMING C++ 2\SOURCE.CPP
C:\USERS\CASGRANT\DOCUMENTS\NINJAS_VS_PIRATES\OBJECT ORIENTED PROGRAMMING C++ 2\X64\DEBUG\VC142.PDB
C:\USERS\CASGRANT\DOCUMENTS\NINJAS_VS_PIRATES\OBJECT ORIENTED PROGRAMMING C++ 2\X64\DEBUG\VC142.IDB
C:\USERS\CASGRANT\DOCUMENTS\NINJAS_VS_PIRATES\OBJECT ORIENTED PROGRAMMING C++ 2\X64\DEBUG\SOURCE.OBJ
C:\USERS\CASGRANT\DOCUMENTS\NINJAS_VS_PIRATES\OBJECT ORIENTED PROGRAMMING C++ 2\X64\DEBUG\CHARACTER.OBJ
^C:\USERS\CASGRANT\DOCUMENTS\NINJAS_VS_PIRATES\OBJECT ORIENTED PROGRAMMING C++ 2\CHARACTER.CPP|C:\USERS\CASGRANT\DOCUMENTS\NINJAS_VS_PIRATES\OBJECT ORIENTED PROGRAMMING C++ 2\GAMEDRIVER.CPP|C:\USERS\CASGRANT\DOCUMENTS\NINJAS_VS_PIRATES\OBJECT ORIENTED PROGRAMMING C++ 2\GAMESTRUCTURE.CPP|C:\USERS\CASGRANT\DOCUMENTS\NINJAS_VS_PIRATES\OBJECT ORIENTED PROGRAMMING C++ 2\NINJA.CPP|C:\USERS\CASGRANT\DOCUMENTS\NINJAS_VS_PIRATES\OBJECT ORIENTED PROGRAMMING C++ 2\PIRATE.CPP|C:\USERS\CASGRANT\DOCUMENTS\NINJAS_VS_PIRATES\OBJECT ORIENTED PROGRAMMING C++ 2\SOURCE.CPP
C:\USERS\CASGRANT\DOCUMENTS\NINJAS_VS_PIRATES\OBJECT ORIENTED PROGRAMMING C++ 2\X64\DEBUG\VC142.PDB
C:\USERS\CASGRANT\DOCUMENTS\NINJAS_VS_PIRATES\OBJECT ORIENTED PROGRAMMING C++ 2\X64\DEBUG\VC142.IDB
C:\USERS\CASGRANT\DOCUMENTS\NINJAS_VS_PIRATES\OBJECT ORIENTED PROGRAMMING C++ 2\X64\DEBUG\SOURCE.OBJ
C:\USERS\CASGRANT\DOCUMENTS\NINJAS_VS_PIRATES\OBJECT ORIENTED PROGRAMMING C++ 2\X64\DEBUG\PIRATE.OBJ
C:\USERS\CASGRANT\DOCUMENTS\NINJAS_VS_PIRATES\OBJECT ORIENTED PROGRAMMING C++ 2\X64\DEBUG\NINJA.OBJ
C:\USERS\CASGRANT\DOCUMENTS\NINJAS_VS_PIRATES\OBJECT ORIENTED PROGRAMMING C++ 2\X64\DEBUG\GAMESTRUCTURE.OBJ
C:\USERS\CASGRANT\DOCUMENTS\NINJAS_VS_PIRATES\OBJECT ORIENTED PROGRAMMING C++ 2\X64\DEBUG\GAMEDRIVER.OBJ
C:\USERS\CASGRANT\DOCUMENTS\NINJAS_VS_PIRATES\OBJECT ORIENTED PROGRAMMING C++ 2\X64\DEBUG\CHARACTER.OBJ
^C:\USERS\CASGRANT\DOCUMENTS\NINJAS_VS_PIRATES\OBJECT ORIENTED PROGRAMMING C++ 2\CHARACTER.CPP
C:\USERS\CASGRANT\DOCUMENTS\NINJAS_VS_PIRATES\OBJECT ORIENTED PROGRAMMING C++ 2\X64\DEBUG\VC142.PDB
^C:\USERS\CASGRANT\DOCUMENTS\NINJAS_VS_PIRATES\OBJECT ORIENTED PROGRAMMING C++ 2\GAMEDRIVER.CPP
C:\USERS\CASGRANT\DOCUMENTS\NINJAS_VS_PIRATES\OBJECT ORIENTED PROGRAMMING C++ 2\X64\DEBUG\VC142.PDB
^C:\USERS\CASGRANT\DOCUMENTS\NINJAS_VS_PIRATES\OBJECT ORIENTED PROGRAMMING C++ 2\GAMESTRUCTURE.CPP
C:\USERS\CASGRANT\DOCUMENTS\NINJAS_VS_PIRATES\OBJECT ORIENTED PROGRAMMING C++ 2\X64\DEBUG\VC142.PDB
^C:\USERS\CASGRANT\DOCUMENTS\NINJAS_VS_PIRATES\OBJECT ORIENTED PROGRAMMING C++ 2\NINJA.CPP
C:\USERS\CASGRANT\DOCUMENTS\NINJAS_VS_PIRATES\OBJECT ORIENTED PROGRAMMING C++ 2\X64\DEBUG\VC142.PDB
^C:\USERS\CASGRANT\DOCUMENTS\NINJAS_VS_PIRATES\OBJECT ORIENTED PROGRAMMING C++ 2\PIRATE.CPP
C:\USERS\CASGRANT\DOCUMENTS\NINJAS_VS_PIRATES\OBJECT ORIENTED PROGRAMMING C++ 2\X64\DEBUG\VC142.PDB
^C:\USERS\CASGRANT\DOCUMENTS\NINJAS_VS_PIRATES\OBJECT ORIENTED PROGRAMMING C++ 2\SOURCE.CPP
C:\USERS\CASGRANT\DOCUMENTS\NINJAS_VS_PIRATES\OBJECT ORIENTED PROGRAMMING C++ 2\X64\DEBUG\VC142.PDB
